<svg version="1.1" xmlns="http://www.w3.org/2000/svg" xmlns:xlink="http://www.w3.org/1999/xlink" x="0px" y="0px" viewBox="0 0 448.943 511.936" enable-background="new 0 0 448.943 511.936" xml:space="preserve">
 <path fill-rule="evenodd" clip-rule="evenodd" d="M216.973,0c4.999,0,9.999,0,14.998,0c0.934,0.289,1.848,0.7,2.803,0.849
     c35.56,5.569,59.056,25.637,71.139,59.313c1.446,4.029,2.233,8.293,3.405,12.748c1.912,0,3.728,0,5.544,0
     c24.324,0.004,48.65-0.123,72.975,0.05c23.18,0.165,43.083,18.203,45.229,41.167c1.069,11.433,1.354,22.942,1.857,34.423
     c1.811,41.271,3.536,82.546,5.345,123.818c2.236,51.09,4.495,102.179,6.814,153.265c0.459,10.111,1.232,20.207,1.861,30.311
     c0,4.999,0,9.999,0,14.998c-0.31,0.932-0.701,1.844-0.916,2.797c-4.409,19.681-16.585,31.81-35.919,36.998
     c-1.394,0.374-2.773,0.799-4.159,1.2c-122.318,0-244.636,0-366.955,0c-1.062-0.344-2.105-0.768-3.188-1.019
     c-17.513-4.05-29.384-14.482-35.439-31.419c-0.994-2.78-1.588-5.701-2.367-8.558c0-5.332,0-10.666,0-15.998
     c0.649-10.771,1.432-21.536,1.922-32.314c1.528-33.613,2.927-67.233,4.411-100.849c1.864-42.269,3.754-84.536,5.648-126.803
     c1.17-26.125,1.803-52.291,3.714-78.362c1.932-26.362,21.481-43.623,47.912-43.691c23.492-0.061,46.984-0.014,70.476-0.014
     c1.806,0,3.612,0,5.438,0c0.491-1.836,0.903-3.258,1.25-4.696c7.928-32.867,28.148-54.357,60.212-64.69
     C206.155,1.856,211.635,1.15,216.973,0z M138.794,112.834c-1.614-0.161-2.588-0.342-3.562-0.343
     c-23.824-0.016-47.648-0.05-71.473,0.013c-5.837,0.016-8.473,2.265-8.703,7.335c-1.711,37.771-3.369,75.546-5.029,113.32
     c-1.463,33.282-2.898,66.564-4.36,99.846c-1.899,43.266-3.837,86.529-5.698,129.796c-0.305,7.08,1.884,9.227,9.046,9.228
     c116.955,0.012,233.91,0.012,350.865,0c7.153-0.001,9.357-2.159,9.071-9.214c-0.942-23.133-1.999-46.262-3.003-69.393
     c-1.784-41.104-3.527-82.209-5.349-123.311c-2.185-49.255-4.457-98.505-6.632-147.76c-0.352-7.973-2.125-9.863-10.289-9.872
     c-22.824-0.022-45.648-0.008-68.473-0.008c-1.631,0-3.261,0-5.388,0c0,2.347,0,4.145,0,5.943c0,21.492,0.065,42.984-0.071,64.475
     c-0.021,3.264-0.479,6.705-1.596,9.749c-3.241,8.842-12.268,13.763-21.632,12.262c-9.382-1.504-16.41-9.694-16.468-19.774
     c-0.127-22.324-0.042-44.649-0.043-66.974c0-1.755,0-3.51,0-5.287c-30.922,0-61.152,0-91.782,0c0,2.197,0,4.008,0,5.819
     c-0.003,21.992,0.076,43.984-0.041,65.975c-0.064,12.01-8.478,20.481-19.877,20.41c-11.106-0.069-19.341-8.603-19.496-20.297
     c-0.079-5.996-0.019-11.995-0.02-17.993C138.794,148.965,138.794,131.15,138.794,112.834z M267.788,72.679
     c-3.836-19.294-24.277-33.501-46.475-32.677c-18.405,0.683-38.273,16.774-40.091,32.677
     C209.988,72.679,238.729,72.679,267.788,72.679z"/>
</svg>